Simon/Simon.sim/sim_1/behav/xsim/tb_TOP.vcd
$date
   Tue Mar 10 19:23:18 2026
$end

$version
  2025.2
  $dumpfile ("tb_TOP.vcd") 
$end

$timescale
  1ps
$end

$scope module tb_TOP $end
$var reg 1 ! main_clk $end
$var reg 1 " btnC_start $end
$var reg 1 # btnL_blue $end
$var reg 1 $ btnU_green $end
$var reg 1 % btnR_red $end
$var reg 1 & btnD_yellow $end
$var reg 16 ' SW [15:0] $end
$var wire 7 ( seg [6:0] $end
$var wire 4 ) digit [3:0] $end
$var wire 1 * pin_out_red $end
$var wire 1 + pin_out_green $end
$var wire 1 , pin_out_blue $end
$var wire 1 - pin_out_yellow $end
$var wire 1 . pin_out_sound_select $end
$var wire 1 / pin_out_en_sound $end
$var reg 32 0 round_tb [31:0] $end
$var reg 32 1 errors [31:0] $end
$var reg 32 2 fail_count_tb [31:0] $end
$var reg 4 3 prev_state [3:0] $end
$var reg 4 4 prev_indx_show [3:0] $end
$var reg 4 5 prev_leds [3:0] $end
$var reg 4 6 prev_indx_plyr [3:0] $end
$scope module uut $end
$var wire 1 7 main_clk $end
$var wire 1 8 btnC_start $end
$var wire 1 9 btnL_blue $end
$var wire 1 : btnU_green $end
$var wire 1 ; btnR_red $end
$var wire 1 < btnD_yellow $end
$var wire 16 = SW [15:0] $end
$var wire 7 ( seg [6:0] $end
$var wire 4 ) digit [3:0] $end
$var wire 1 * pin_out_red $end
$var wire 1 + pin_out_green $end
$var wire 1 , pin_out_blue $end
$var wire 1 - pin_out_yellow $end
$var wire 1 . pin_out_sound_select $end
$var wire 1 / pin_out_en_sound $end
$var reg 1 > high $end
$var reg 1 ? low $end
$var reg 1 @ power_on_rst $end
$var reg 1 A square_wave_2hz_output $end
$var reg 1 B processed_red_button $end
$var reg 1 C processed_green_button $end
$var reg 1 D processed_blue_button $end
$var reg 1 E processed_yellow_button $end
$var reg 1 F processed_start_button $end
$var reg 1 G plyr_en_signal $end
$var reg 1 H c_mef $end
$var reg 1 I f_mef $end
$var reg 1 J k_mef $end
$var reg 1 K m_mef $end
$var reg 1 L e_mef $end
$var reg 1 M en_comp_reg_mef $end
$var reg 1 N en_indx_mef $end
$var reg 1 O en_sonido_mef $end
$var reg 1 P en_fail_counter_mef $end
$var reg 1 Q rst_round_counter_mef $end
$var reg 1 R en_lose_music_mef $end
$var reg 1 S en_win_music_mef $end
$var reg 1 T rst_lose_counter_mef $end
$var reg 1 U en_decoder_luz_mef $end
$var reg 1 V plyr_flag_mef $end
$var reg 1 W en_mux_comp_mef $end
$var reg 1 X en_rc_mef $end
$var reg 1 Y rst_indx_mef $end
$var reg 1 Z rst_med_counter_mef $end
$var reg 4 [ state_mef [3:0] $end
$var reg 1 \ clk_out_1hz $end
$var reg 16 ] outputs_lsfr [15:0] $end
$var reg 16 ^ player_moves_bits [15:0] $end
$var reg 1 _ mux_en_indx_output $end
$var reg 4 ` indx_count [3:0] $end
$var reg 4 a round_count [3:0] $end
$var reg 1 b rc_gt_index $end
$var reg 1 c rc_lt_index $end
$var reg 1 d rc_eq_index $end
$var reg 1 e indx_gt_rc $end
$var reg 1 f indx_eq_rc $end
$var reg 1 g indx_lt_rc $end
$var reg 3 h indx_count_3lsb [2:0] $end
$var reg 1 i comp_msb $end
$var reg 1 j comp_lsb $end
$var reg 4 k player_encoder_inputs [3:0] $end
$var reg 2 l bus_plyr_bits [1:0] $end
$var reg 1 m plyr_msb $end
$var reg 1 n plyr_lsb $end
$var reg 1 o decoder_msb $end
$var reg 1 p decoder_lsb $end
$var reg 1 q mux_en_color_decoder_output $end
$var reg 2 r color_decoder_input_bus [1:0] $end
$var reg 4 s color_decoder_output_bus [3:0] $end
$var reg 1 t mux_en_color_sound_output $end
$var reg 1 u square_blue_tone $end
$var reg 1 v square_yellow_tone $end
$var reg 1 w square_red_tone $end
$var reg 1 x square_green_tone $end
$var reg 1 y color_sound $end
$var reg 1 z en_medley_counter $end
$var reg 2 { medley_count [1:0] $end
$var reg 1 | tone_C7 $end
$var reg 1 } tone_E7 $end
$var reg 1 ~ tone_G7 $end
$var reg 1 !! win_sound $end
$var reg 1 "! lose_sound $end
$var reg 1 #! mc_gt_three $end
$var reg 1 $! mc_eq_three $end
$var reg 1 %! mc_lt_three $end
$var reg 1 &! comparation_result $end
$var reg 1 '! mux_k_value_output $end
$var reg 4 (! round_counter_msb [3:0] $end
$var reg 4 )! round_counter_lsb [3:0] $end
$var reg 1 *! en_fail_counter_prev $end
$var reg 7 +! fail_count [6:0] $end
$var reg 4 ,! fail_msb [3:0] $end
$var reg 4 -! fail_lsb [3:0] $end
$scope module power_rst $end
$var wire 1 7 clk $end
$var reg 1 @ rst $end
$var reg 4 .! cnt [3:0] $end
$upscope $end
$scope module square_wave_2hz $end
$var wire 1 7 main_clk $end
$var wire 1 /! rst $end
$var reg 1 A square_wave $end
$var reg 3 0! cnt [2:0] $end
$upscope $end
$scope module processing_red_btn $end
$var wire 1 7 clk $end
$var wire 1 1! rst $end
$var wire 1 ; raw_button $end
$var reg 1 B processed_button $end
$var reg 16 2! shreg [15:0] $end
$var reg 1 3! stable $end
$var reg 1 4! stable_prev $end
$upscope $end
$scope module processing_green_btn $end
$var wire 1 7 clk $end
$var wire 1 5! rst $end
$var wire 1 : raw_button $end
$var reg 1 C processed_button $end
$var reg 16 6! shreg [15:0] $end
$var reg 1 7! stable $end
$var reg 1 8! stable_prev $end
$upscope $end
$scope module processing_blue_btn $end
$var wire 1 7 clk $end
$var wire 1 9! rst $end
$var wire 1 9 raw_button $end
$var reg 1 D processed_button $end
$var reg 16 :! shreg [15:0] $end
$var reg 1 ;! stable $end
$var reg 1 <! stable_prev $end
$upscope $end
$scope module processing_yellow_btn $end
$var wire 1 7 clk $end
$var wire 1 =! rst $end
$var wire 1 < raw_button $end
$var reg 1 E processed_button $end
$var reg 16 >! shreg [15:0] $end
$var reg 1 ?! stable $end
$var reg 1 @! stable_prev $end
$upscope $end
$scope module processing_start_btn $end
$var wire 1 7 clk $end
$var wire 1 A! rst $end
$var wire 1 8 raw_button $end
$var reg 1 F processed_button $end
$var reg 16 B! shreg [15:0] $end
$var reg 1 C! stable $end
$var reg 1 D! stable_prev $end
$upscope $end
$scope module Simon_controller $end
$var wire 1 7 clk $end
$var wire 1 E! rst $end
$var wire 1 F! i $end
$var wire 1 G! c $end
$var wire 1 H! f $end
$var wire 1 I! k $end
$var wire 1 J! e $end
$var wire 1 K! m $end
$var reg 1 M en_comp_reg $end
$var reg 1 N en_index $end
$var reg 1 O en_sonido $end
$var reg 1 P en_fail_counter $end
$var reg 1 Q rst_round_counter $end
$var reg 1 R en_lose_music $end
$var reg 1 S en_win_music $end
$var reg 1 T rst_lose_counter $end
$var reg 1 U en_decoder_luz $end
$var reg 1 V plyr_flag $end
$var reg 1 W en_mux_comp $end
$var reg 4 [ state [3:0] $end
$var reg 1 X en_rc $end
$var reg 1 Y rst_indx $end
$var reg 1 Z rst_med_counter $end
$var reg 4 L! current $end
$var reg 4 M! next $end
$upscope $end
$scope module clk_1hz $end
$var wire 1 7 main_clk $end
$var wire 1 N! rst $end
$var reg 1 \ pulse $end
$var reg 6 O! cnt [5:0] $end
$upscope $end
$scope module LSFR $end
$var wire 1 7 clk $end
$var wire 1 P! rst $end
$var wire 16 = sw [15:0] $end
$var reg 16 ] op [15:0] $end
$upscope $end
$scope module computer_moves_reg $end
$var wire 1 7 clk $end
$var wire 1 P! rst $end
$var wire 1 Q! en $end
$var wire 16 R! data_in [15:0] $end
$var reg 16 ^ data_out [15:0] $end
$upscope $end
$scope module mux_en_indx $end
$var wire 1 S! sel $end
$var wire 1 T! en $end
$var reg 1 _ y $end
$upscope $end
$scope module indx_counter $end
$var wire 1 7 clk $end
$var wire 1 U! rst $end
$var wire 1 V! en $end
$var reg 4 ` count [3:0] $end
$upscope $end
$scope module round_counter $end
$var wire 1 7 clk $end
$var wire 1 P! rst $end
$var wire 1 W! en $end
$var reg 4 a count [3:0] $end
$upscope $end
$scope module round_counter_comparator $end
$var wire 4 X! a [3:0] $end
$var wire 4 Y! b [3:0] $end
$var reg 1 b gt $end
$var reg 1 d eq $end
$var reg 1 c lt $end
$upscope $end
$scope module indx_comparator $end
$var wire 4 Z! a [3:0] $end
$var wire 4 [! b [3:0] $end
$var reg 1 e gt $end
$var reg 1 f eq $end
$var reg 1 g lt $end
$upscope $end
$scope module computer_msb_mux $end
$var wire 1 \! sel $end
$var wire 1 ]! en $end
$var reg 1 i y $end
$upscope $end
$scope module computer_lsb_mux $end
$var wire 1 ^! sel $end
$var wire 1 _! en $end
$var reg 1 j y $end
$upscope $end
$scope module player_inputs_encoder $end
$var wire 4 `! encoder_in [3:0] $end
$var wire 1 a! enable $end
$var reg 2 l binary_out [1:0] $end
$var integer 32 b! i [31:0] $end
$upscope $end
$scope module deco_msb_selector $end
$var wire 1 c! sel $end
$var wire 1 d! en $end
$var reg 1 o y $end
$upscope $end
$scope module deco_lsb_selector $end
$var wire 1 e! sel $end
$var wire 1 f! en $end
$var reg 1 p y $end
$upscope $end
$scope module mux_en_color_decoder $end
$var wire 1 g! sel $end
$var wire 1 h! en $end
$var reg 1 q y $end
$upscope $end
$scope module color_decoder $end
$var wire 2 i! deco_in [1:0] $end
$var wire 1 j! enable $end
$var reg 4 s deco_out [3:0] $end
$upscope $end
$scope module mux_en_color_sound $end
$var wire 1 k! sel $end
$var wire 1 l! en $end
$var reg 1 t y $end
$upscope $end
$scope module tone_blue $end
$var wire 1 7 main_clk $end
$var wire 1 m! rst $end
$var reg 1 u square_wave $end
$var reg 2 n! cnt [1:0] $end
$upscope $end
$scope module tone_yellow $end
$var wire 1 7 main_clk $end
$var wire 1 o! rst $end
$var reg 1 v square_wave $end
$var reg 2 p! cnt [1:0] $end
$upscope $end
$scope module tone_red $end
$var wire 1 7 main_clk $end
$var wire 1 q! rst $end
$var reg 1 w square_wave $end
$var reg 2 r! cnt [1:0] $end
$upscope $end
$scope module tone_green $end
$var wire 1 7 main_clk $end
$var wire 1 s! rst $end
$var reg 1 x square_wave $end
$var reg 2 t! cnt [1:0] $end
$upscope $end
$scope module color_sound_mux $end
$var wire 1 u! sel $end
$var wire 1 v! en $end
$var reg 1 y y $end
$upscope $end
$scope module medley_counter $end
$var wire 1 7 clk $end
$var wire 1 w! rst $end
$var wire 1 x! en $end
$var reg 2 { count [1:0] $end
$upscope $end
$scope module tone_win_1 $end
$var wire 1 7 main_clk $end
$var wire 1 y! rst $end
$var reg 1 | square_wave $end
$var reg 2 z! cnt [1:0] $end
$upscope $end
$scope module tone_win_2 $end
$var wire 1 7 main_clk $end
$var wire 1 {! rst $end
$var reg 1 } square_wave $end
$var reg 2 |! cnt [1:0] $end
$upscope $end
$scope module tone_win_3 $end
$var wire 1 7 main_clk $end
$var wire 1 }! rst $end
$var reg 1 ~ square_wave $end
$var reg 2 ~! cnt [1:0] $end
$upscope $end
$scope module mux_win_medley $end
$var wire 1 !" sel $end
$var wire 1 "" en $end
$var reg 1 !! y $end
$upscope $end
$scope module mux_lose_medley $end
$var wire 1 #" sel $end
$var wire 1 $" en $end
$var reg 1 "! y $end
$upscope $end
$scope module medleey_ending_comparator $end
$var wire 2 %" a [1:0] $end
$var wire 2 &" b [1:0] $end
$var reg 1 #! gt $end
$var reg 1 $! eq $end
$var reg 1 %! lt $end
$upscope $end
$scope module latch_plyr_comparison $end
$var wire 1 '" clk $end
$var wire 1 (" set $end
$var wire 1 )" D $end
$var wire 1 *" en $end
$var reg 1 +" Q $end
$upscope $end
$scope module mux_k_value $end
$var wire 1 ," sel $end
$var wire 1 -" en $end
$var reg 1 '! y $end
$upscope $end
$scope module round_counter_digit_separator $end
$var wire 4 ." number [3:0] $end
$var reg 4 (! tents [3:0] $end
$var reg 4 )! units [3:0] $end
$upscope $end
$scope module fail_counter $end
$var wire 1 7 clk $end
$var wire 1 /" rst $end
$var wire 1 0" en $end
$var reg 7 +! count [6:0] $end
$upscope $end
$scope module fail_digit_separator $end
$var wire 4 1" number [3:0] $end
$var reg 4 ,! tents [3:0] $end
$var reg 4 -! units [3:0] $end
$upscope $end
$scope module display_bcd $end
$var wire 1 7 clk_100MHz $end
$var wire 1 2" reset $end
$var wire 4 3" lsb_counter_1 [3:0] $end
$var wire 4 4" msb_counter_1 [3:0] $end
$var wire 4 5" lsb_counter_2 [3:0] $end
$var wire 4 6" msb_counter_2 [3:0] $end
$var reg 7 7" seg [6:0] $end
$var reg 4 8" digit [3:0] $end
$upscope $end
$upscope $end
$scope begin Block708_31 $end
$var reg 32 9" rnd [31:0] $end
$scope begin Block720_32 $end
$var reg 32 :" step [31:0] $end
$scope begin Block720_33 $end
$var reg 1 ;" msb_val $end
$var reg 1 <" lsb_val $end
$upscope $end
$upscope $end
$upscope $end
$scope begin Block757_34 $end
$var reg 32 =" rnd [31:0] $end
$scope begin Block761_35 $end
$var reg 32 >" step [31:0] $end
$scope begin Block761_36 $end
$var reg 1 ?" msb_val $end
$var reg 1 @" lsb_val $end
$upscope $end
$upscope $end
$upscope $end
$scope begin Block870_40 $end
$var reg 4 A" cur_leds [3:0] $end
$upscope $end
$scope function color_name $end
$var reg 1 B" msb $end
$var reg 1 C" lsb $end
$upscope $end
$scope task press_button $end
$upscope $end
$scope task wait_1hz_pulses $end
$upscope $end
$scope task press_correct_color $end
$upscope $end
$scope task press_wrong_color $end
$upscope $end
$upscope $end
$enddefinitions $end

#0
$dumpvars
0!
0!!
x!"
0"
0"!
0""
0#
x#!
x#"
0$
x$!
0$"
0%
x%!
bx %"
0&
x&!
b11 &"
b1010110011100001 '
1'!
x'"
bx (
bx (!
0("
bx )
bx )!
x)"
0*
x*!
0*"
0+
bx +!
x+"
0,
bx ,!
0,"
0-
bx -!
1-"
0.
b0 .!
bx ."
0/
x/!
x/"
b0 0
b0 0!
00"
b0 1
x1!
bx 1"
b0 2
b0 2!
x2"
b1111 3
x3!
bx 3"
b1111 4
x4!
bx 4"
b0 5
x5!
bx 5"
b1111 6
b0 6!
bx 6"
07
x7!
bx 7"
08
x8!
bx 8"
09
x9!
b0 9"
0:
b0 :!
b0 :"
0;
x;!
x;"
0<
x<!
x<"
b1010110011100001 =
x=!
b0 ="
1>
b0 >!
b0 >"
0?
x?!
x?"
x@
x@!
x@"
xA
xA!
bx A"
xB
b0 B!
xB"
xC
xC!
xC"
xD
xD!
xE
xE!
xF
xF!
xG
xG!
xH
xH!
xI
1I!
1J
0J!
xK
xK!
0L
bx L!
0M
b0 M!
0N
xN!
0O
b0 O!
0P
xP!
0Q
0Q!
0R
bx R!
0S
0S!
0T
1T!
0U
xU!
0V
0V!
0W
0W!
0X
bx X!
0Y
b1000 Y!
0Z
bx Z!
bx [
bx [!
x\
x\!
bx ]
1]!
bx ^
x^!
0_
1_!
bx `
bx `!
bx a
xa!
xb
bx b!
xc
0c!
xd
1d!
xe
0e!
xf
1f!
xg
0g!
bx h
1h!
xi
bx i!
xj
0j!
bx k
0k!
b0 l
1l!
xm
xm!
xn
b0 n!
xo
xo!
xp
b0 p!
0q
xq!
bx r
b0 r!
b0 s
xs!
0t
b0 t!
xu
xu!
xv
0v!
xw
xw!
xx
xx!
0y
xy!
xz
b0 z!
bx {
x{!
x|
b0 |!
x}
x}!
x~
b0 ~!
$end

#5000
1!
b1 (
1("
b1110 )
0*!
b1 .!
1/!
1/"
b1 0!
11!
12"
bx 3
03!
15!
17
07!
b1 7"
b1110 8"
19!
0;!
1=!
0?!
1@
1A!
b0 A"
0C!
1E!
b0 L!
1N!
b1 O!
1P!
1Q
1T
1U!
1Z
b0 [
0\
1m!
b1 n!
1o!
b1 p!
1q!
b1 r!
1s!
b1 t!
1w!
0x!
1y!
b1 z!
1{!
b1 |!
1}!
b1 ~!

#10000
0!
07

#15000
1!
0!"
0#!
0#"
0$!
1%!
b0 %"
b0 (!
b0 )!
b0 +!
b0 ,!
b0 -!
b10 .!
b0 ."
b0 0!
b0 1"
b0 3
b0 3"
04!
b0 4"
b0 5"
b0 6"
17
08!
0<!
0@!
0A
0B
0C
0D
0D!
0E
0F
0F!
0G!
0H
0H!
0I
0K
0K!
b0 O!
b1010110011100001 R!
b0 X!
b0 Z!
b0 [!
0\!
b1010110011100001 ]
b0 ^
0^!
b0 `
b0 `!
b0 a
0b
1c
0d
0e
1f
0g
b0 h
0i
0j
b0 k
b0 n!
0o
0p
b0 p!
b0 r!
b0 t!
0u
0v
0w
0x
b0 z!
b0 {
0|
b0 |!
0}
0~
b0 ~!

#20000
0!
07

#25000
1!
b11 .!
17

#30000
0!
07

#35000
1!
b100 .!
17

#40000
0!
07

#45000
1!
b101 .!
17

#50000
0!
07

#55000
1!
b110 .!
17

#60000
0!
07

#65000
1!
b111 .!
17

#70000
0!
07

#75000
1!
b1000 .!
17

#80000
0!
07

#85000
1!
b1001 .!
17

#90000
0!
07

#95000
1!
b1010 .!
17

#100000
0!
07

#105000
1!
b1011 .!
17

#110000
0!
07

#115000
1!
b1100 .!
17

#120000
0!
07

#125000
1!
b1101 .!
17

#130000
0!
07

#135000
1!
b1110 .!
17

#140000
0!
07

#145000
1!
b1111 .!
17

#150000
0!
07

#155000
1!
0/!
01!
02"
05!
17
09!
0=!
0@
0A!
0E!
0N!
0U!
0m!
0o!
0q!
0s!
0y!
0{!
0}!

#160000
0!
07

#165000
1!
b1 0!
17
b1 O!
b1 n!
b1 p!
b1 r!
b1 t!
b1 z!
b1 |!
b1 ~!

#170000
0!
07

#175000
1!
b10 0!
17
b10 O!
b10 n!
b10 p!
b10 r!
b10 t!
b10 z!
b10 |!
b10 ~!

#180000
0!
07

#185000
1!
b11 0!
17
b11 O!
b11 n!
b11 p!
b11 r!
b11 t!
b11 z!
b11 |!
b11 ~!

#190000
0!
07

#195000
1!
b100 0!
17
b100 O!
b0 n!
b0 p!
b0 r!
b0 t!
1u
1v
1w
1x
b0 z!
1|
b0 |!
1}
1~
b0 ~!

#200000
0!
07

#205000
1!
1"
b101 0!
17
18
b1 B!
b101 O!
b1 n!
b1 p!
b1 r!
b1 t!
b1 z!
b1 |!
b1 ~!

#210000
0!
07

#215000
1!
b110 0!
17
b11 B!
b110 O!
b10 n!
b10 p!
b10 r!
b10 t!
b10 z!
b10 |!
b10 ~!

#220000
0!
07

#225000
1!
b111 0!
17
b111 B!
b111 O!
b11 n!
b11 p!
b11 r!
b11 t!
b11 z!
b11 |!
b11 ~!

#230000
0!
07

#235000
1!
b0 0!
17
1A
b1111 B!
b1000 O!
b0 n!
b0 p!
b0 r!
b0 t!
0u
0v
0w
0x
b0 z!
0|
b0 |!
0}
0~
b0 ~!

#240000
0!
07

#245000
1!
b1 0!
17
b11111 B!
b1001 O!
b1 n!
b1 p!
b1 r!
b1 t!
b1 z!
b1 |!
b1 ~!

#250000
0!
07

#255000
1!
b10 0!
17
b111111 B!
b1010 O!
b10 n!
b10 p!
b10 r!
b10 t!
b10 z!
b10 |!
b10 ~!

#260000
0!
07

#265000
1!
b11 0!
17
b1111111 B!
b1011 O!
b11 n!
b11 p!
b11 r!
b11 t!
b11 z!
b11 |!
b11 ~!

#270000
0!
07

#275000
1!
b100 0!
17
b11111111 B!
b1100 O!
b0 n!
b0 p!
b0 r!
b0 t!
1u
1v
1w
1x
b0 z!
1|
b0 |!
1}
1~
b0 ~!

#280000
0!
07

#285000
1!
b101 0!
17
b111111111 B!
b1101 O!
b1 n!
b1 p!
b1 r!
b1 t!
b1 z!
b1 |!
b1 ~!

#290000
0!
07

#295000
1!
b110 0!
17
b1111111111 B!
b1110 O!
b10 n!
b10 p!
b10 r!
b10 t!
b10 z!
b10 |!
b10 ~!

#300000
0!
07

#305000
1!
b111 0!
17
b11111111111 B!
b1111 O!
b11 n!
b11 p!
b11 r!
b11 t!
b11 z!
b11 |!
b11 ~!

#310000
0!
07

#315000
1!
b0 0!
17
0A
b111111111111 B!
b10000 O!
b0 n!
b0 p!
b0 r!
b0 t!
0u
0v
0w
0x
b0 z!
0|
b0 |!
0}
0~
b0 ~!

#320000
0!
07

#325000
1!
b1 0!
17
b1111111111111 B!
b10001 O!
b1 n!
b1 p!
b1 r!
b1 t!
b1 z!
b1 |!
b1 ~!

#330000
0!
07

#335000
1!
b10 0!
17
b11111111111111 B!
b10010 O!
b10 n!
b10 p!
b10 r!
b10 t!
b10 z!
b10 |!
b10 ~!

#340000
0!
07

#345000
1!
b11 0!
17
b111111111111111 B!
b10011 O!
b11 n!
b11 p!
b11 r!
b11 t!
b11 z!
b11 |!
b11 ~!

#350000
0!
07

#355000
1!
b100 0!
17
b1111111111111111 B!
b10100 O!
b0 n!
b0 p!
b0 r!
b0 t!
1u
1v
1w
1x
b0 z!
1|
b0 |!
1}
1~
b0 ~!

#360000
0!
07

#365000
1!
b101 0!
17
1C!
b10101 O!
b1 n!
b1 p!
b1 r!
b1 t!
b1 z!
b1 |!
b1 ~!

#370000
0!
07

#375000
1!
b110 0!
17
1D!
1F
1F!
b1 M!
b10110 O!
b10 n!
b10 p!
b10 r!
b10 t!
b10 z!
b10 |!
b10 ~!

#380000
0!
07

#385000
1!
0("
0/"
b111 0!
17
0F
0F!
b1 L!
1M
b10 M!
b10111 O!
0P!
0Q
1Q!
0T
1U!
1Y
0Z
b1 [
b11 n!
b11 p!
b11 r!
b11 t!
0w!
b11 z!
b11 |!
b11 ~!

#390000
0!
07

#395000
1!
x*
x+
x,
x-
x.
1/
b0 0!
b1 3
17
1A
b10 L!
0M
1N
1O
b11000 O!
0Q!
b101100111000011 R!
1U
0U!
0Y
b10 [
b101100111000011 ]
b1010110011100001 ^
1_
1i
1j!
b0 n!
1o
b0 p!
1q
b0 r!
bx s
1t
b0 t!
0u
0v
1v!
0w
0x
xy
b0 z!
0|
b0 |!
0}
0~
b0 ~!

#400000
0!
07

#405000
1!
0"
b1 0!
b10 3
b0 4
bx 5
17
08
bx A"
b1111111111111110 B!
1B"
0C"
b11001 O!
b1011001110000111 R!
b1011001110000111 ]
b1 n!
b1 p!
b1 r!
b1 t!
b1 z!
b1 |!
b1 ~!

#410000
0!
07

#415000
1!
b10 0!
17
b1111111111111100 B!
0C!
b11010 O!
b110011100001111 R!
b110011100001111 ]
b10 n!
b10 p!
b10 r!
b10 t!
b10 z!
b10 |!
b10 ~!

#420000
0!
07

#425000
1!
b11 0!
17
b1111111111111000 B!
0D!
b11011 O!
b1100111000011110 R!
b1100111000011110 ]
b11 n!
b11 p!
b11 r!
b11 t!
b11 z!
b11 |!
b11 ~!

#430000
0!
07

#435000
1!
b100 0!
17
b1111111111110000 B!
b11100 O!
b1001110000111100 R!
b1001110000111100 ]
b0 n!
b0 p!
b0 r!
b0 t!
1u
1v
1w
1x
b0 z!
1|
b0 |!
1}
1~
b0 ~!

#440000
0!
07

#445000
1!
b101 0!
17
b1111111111100000 B!
b11101 O!
b11100001111001 R!
b11100001111001 ]
b1 n!
b1 p!
b1 r!
b1 t!
b1 z!
b1 |!
b1 ~!

#450000
0!
07

#455000
1!
b110 0!
17
b1111111111000000 B!
b11110 O!
b111000011110010 R!
b111000011110010 ]
b10 n!
b10 p!
b10 r!
b10 t!
b10 z!
b10 |!
b10 ~!

#460000
0!
07

#465000
1!
b111 0!
17
b1111111110000000 B!
b11111 O!
b1110000111100100 R!
b1110000111100100 ]
b11 n!
b11 p!
b11 r!
b11 t!
b11 z!
b11 |!
b11 ~!

#470000
0!
07

#475000
1!
0*
0+
0,
0-
0.
0/
b0 0!
17
0A
b1111111100000000 B!
b100000 O!
b1100001111001000 R!
b1100001111001000 ]
0j!
b0 n!
b0 p!
0q
b0 r!
b0 s
0t
b0 t!
0u
0v
0v!
0w
0x
0y
b0 z!
0|
b0 |!
0}
0~
b0 ~!

#480000
0!
07

#485000
1!
b1 0!
b0 5
17
b0 A"
b1111111000000000 B!
b100001 O!
b1000011110010001 R!
b1000011110010001 ]
b1 n!
b1 p!
b1 r!
b1 t!
b1 z!
b1 |!
b1 ~!

#490000
0!
07

#495000
1!
b10 0!
17
b1111110000000000 B!
b100010 O!
b111100100010 R!
b111100100010 ]
b10 n!
b10 p!
b10 r!
b10 t!
b10 z!
b10 |!
b10 ~!

#500000
0!
07

#505000
1!
b11 0!
17
b1111100000000000 B!
b100011 O!
b1111001000101 R!
b1111001000101 ]
b11 n!
b11 p!
b11 r!
b11 t!
b11 z!
b11 |!
b11 ~!

#510000
0!
07

#515000
1!
b100 0!
17
b1111000000000000 B!
b100100 O!
b11110010001010 R!
b11110010001010 ]
b0 n!
b0 p!
b0 r!
b0 t!
1u
1v
1w
1x
b0 z!
1|
b0 |!
1}
1~
b0 ~!

#520000
0!
07

#525000
1!
b101 0!
17
b1110000000000000 B!
b100101 O!
b111100100010101 R!
b111100100010101 ]
b1 n!
b1 p!
b1 r!
b1 t!
b1 z!
b1 |!
b1 ~!

#530000
0!
07

#535000
1!
b110 0!
17
b1100000000000000 B!
b100110 O!
b1111001000101010 R!
b1111001000101010 ]
b10 n!
b10 p!
b10 r!
b10 t!
b10 z!
b10 |!
b10 ~!

#540000
0!
07

#545000
1!
b111 0!
17
b1000000000000000 B!
b100111 O!
b1110010001010101 R!
b1110010001010101 ]
b11 n!
b11 p!
b11 r!
b11 t!
b11 z!
b11 |!
b11 ~!

#550000
0!
07

#555000
1!
x*
x+
x,
x-
x.
1/
b0 0!
17
1A
b0 B!
b101000 O!
b1100100010101011 R!
b1100100010101011 ]
1j!
b0 n!
b0 p!
1q
b0 r!
bx s
1t
b0 t!
0u
0v
1v!
0w
0x
xy
b0 z!
0|
b0 |!
0}
0~
b0 ~!

#560000
0!
07

#565000
1!
b1 0!
bx 5
17
bx A"
b101001 O!
b1001000101010111 R!
b1001000101010111 ]
b1 n!
b1 p!
b1 r!
b1 t!
b1 z!
b1 |!
b1 ~!

#570000
0!
07

#575000
1!
b10 0!
17
b101010 O!
b10001010101110 R!
b10001010101110 ]
b10 n!
b10 p!
b10 r!
b10 t!
b10 z!
b10 |!
b10 ~!

#580000
0!
07

#585000
1!
b11 0!
17
b101011 O!
b100010101011101 R!
b100010101011101 ]
b11 n!
b11 p!
b11 r!
b11 t!
b11 z!
b11 |!
b11 ~!

#590000
0!
07

#595000
1!
b100 0!
17
b101100 O!
b1000101010111011 R!
b1000101010111011 ]
b0 n!
b0 p!
b0 r!
b0 t!
1u
1v
1w
1x
b0 z!
1|
b0 |!
1}
1~
b0 ~!

#600000
0!
07

#605000
1!
b101 0!
17
b101101 O!
b1010101110111 R!
b1010101110111 ]
b1 n!
b1 p!
b1 r!
b1 t!
b1 z!
b1 |!
b1 ~!

#610000
0!
07

#615000
1!
b110 0!
17
b101110 O!
b10101011101110 R!
b10101011101110 ]
b10 n!
b10 p!
b10 r!
b10 t!
b10 z!
b10 |!
b10 ~!

#620000
0!
07

#625000
1!
b111 0!
17
b101111 O!
b101010111011101 R!
b101010111011101 ]
b11 n!
b11 p!
b11 r!
b11 t!
b11 z!
b11 |!
b11 ~!

#630000
0!
07

#635000
1!
0*
0+
0,
0-
0.
0/
b0 0!
17
0A
b110000 O!
b1010101110111010 R!
b1010101110111010 ]
0j!
b0 n!
b0 p!
0q
b0 r!
b0 s
0t
b0 t!
0u
0v
0v!
0w
0x
0y
b0 z!
0|
b0 |!
0}
0~
b0 ~!

#640000
0!
07

#645000
1!
b1 0!
b0 5
17
b0 A"
b110001 O!
b101011101110100 R!
b101011101110100 ]
b1 n!
b1 p!
b1 r!
b1 t!
b1 z!
b1 |!
b1 ~!

#650000
0!
07

#655000
1!
b10 0!
17
b110010 O!
b1010111011101000 R!
b1010111011101000 ]
b10 n!
b10 p!
b10 r!
b10 t!
b10 z!
b10 |!
b10 ~!

#660000
0!
07

#665000
1!
b11 0!
17
b110011 O!
b101110111010001 R!
b101110111010001 ]
b11 n!
b11 p!
b11 r!
b11 t!
b11 z!
b11 |!
b11 ~!

#670000
0!
07

#675000
1!
b100 0!
17
b110100 O!
b1011101110100010 R!
b1011101110100010 ]
b0 n!
b0 p!
b0 r!
b0 t!
1u
1v
1w
1x
b0 z!
1|
b0 |!
1}
1~
b0 ~!

#680000
0!
07

#685000
1!
b101 0!
17
b110101 O!
b111011101000101 R!
b111011101000101 ]
b1 n!
b1 p!
b1 r!
b1 t!
b1 z!
b1 |!
b1 ~!

#690000
0!
07

#695000
1!
b110 0!
17
b110110 O!
b1110111010001011 R!
b1110111010001011 ]
b10 n!
b10 p!
b10 r!
b10 t!
b10 z!
b10 |!
b10 ~!

#700000
0!
07

#705000
1!
b111 0!
17
b110111 O!
b1101110100010111 R!
b1101110100010111 ]
b11 n!
b11 p!
b11 r!
b11 t!
b11 z!
b11 |!
b11 ~!

#710000
0!
07

#715000
1!
x*
x+
x,
x-
x.
1/
b0 0!
17
1A
b111000 O!
b1011101000101111 R!
b1011101000101111 ]
1j!
b0 n!
b0 p!
1q
b0 r!
bx s
1t
b0 t!
0u
0v
1v!
0w
0x
xy
b0 z!
0|
b0 |!
0}
0~
b0 ~!

#720000
0!
07

#725000
1!
b1 0!
bx 5
17
bx A"
b111001 O!
b111010001011111 R!
b111010001011111 ]
b1 n!
b1 p!
b1 r!
b1 t!
b1 z!
b1 |!
b1 ~!

#730000
0!
07

#735000
1!
b10 0!
17
b111010 O!
b1110100010111111 R!
b1110100010111111 ]
b10 n!
b10 p!
b10 r!
b10 t!
b10 z!
b10 |!
b10 ~!

#740000
0!
07

#745000
1!
b11 0!
17
b111011 O!
b1101000101111110 R!
b1101000101111110 ]
b11 n!
b11 p!
b11 r!
b11 t!
b11 z!
b11 |!
b11 ~!

#750000
0!
07

